Incident Trending
…
        series <- rbind(series, clean)
}

Set factor to keep books in order of publication

Creating Bi-grams, or two word phrases

series$book <- factor(series$book, levels = rev(titles))

series

## # A tibble: 49,924 x 3
##    book  chapter bigram              
##    <fct>   <int> <chr>               
##  1 1           2 termination escort  
##  2 1           2 escort in           
##  3 1           2 in northborough     
##  4 1           2 northborough ma     
##  5 1           3 employee is         
##  6 1           3 is in               
##  7 1           3 in the              
##  8 1           3 the hearing         
##  9 1           3 hearing conservation
## 10 1           3 conservation program
## # ... with 49,914 more rows

Frequency Analysis of bi-grams

series %>%
        count(bigram, sort = TRUE)

## # A tibble: 24,141 x 2
##    bigram              n
##    <chr>           <int>
##  1 of the            430
##  2 to the            386
##  3 in the            313
##  4 employee was      310
##  5 company vehicle   270
##  6 the employee      239
##  7 on the            226
##  8 damage to         142
##  9 due to            142
## 10 the right         127
## # ... with 24,131 more rows

Remove Stop Words, or unimportant words

series %>%
        separate(bigram, c("word1", "word2"), sep = " ") %>%
        filter(!word1 %in% stop_words$word,
               !word2 %in% stop_words$word) %>%
        count(word1, word2, sort = TRUE)

## # A tibble: 7,709 x 3
##    word1    word2         n
##    <chr>    <chr>     <int>
##  1 company  vehicle     270
##  2 public   vehicle      81
##  3 national grid         79
##  4 parking  lot          60
##  5 wind     storm        52
##  6 minor    damage       42
##  7 public   attention    42
##  8 storm    event        42
##  9 2017     major        41
## 10 8        2017         41
## # ... with 7,699 more rows
…
Sentiment Analysis

series %>%
        separate(bigram, c("word1", "word2"), sep = " ") %>%
        filter(word1 == "not") %>%
        count(book, word1, word2, sort = TRUE)

## # A tibble: 131 x 4
##    book  word1 word2          n
##    <fct> <chr> <chr>      <int>
##  1 1     not   injured        5
##  2 3     not   have           3
##  3 3     not   reportable     3
##  4 3     not   stop           3
##  5 2     not   being          3
##  6 2     not   injured        3
##  7 1     not   been           3
##  8 1     not   have           3
##  9 1     not   see            3
## 10 1     not   working        3
## # ... with 121 more rows
…
